<?xml version="1.0" encoding="utf-8"?>
<!-- Generator: Adobe Illustrator 15.0.2, SVG Export Plug-In  -->
<!DOCTYPE svg PUBLIC "-//W3C//DTD SVG 1.1//EN" "http://www.w3.org/Graphics/SVG/1.1/DTD/svg11.dtd" [
	<!ENTITY ns_flows "http://ns.adobe.com/Flows/1.0/">
]>
<svg version="1.1"
	 xmlns="http://www.w3.org/2000/svg" xmlns:xlink="http://www.w3.org/1999/xlink" xmlns:a="http://ns.adobe.com/AdobeSVGViewerExtensions/3.0/"
	 x="0px" y="0px" width="172px" height="43px" viewBox="-5.189 -6.341 172 43"
	 overflow="visible" enable-background="new -5.189 -6.341 172 43" xml:space="preserve">
<defs>
</defs>
<path fill="#192352" d="M9.392,5.451c0,1.631-0.44,2.961-1.319,3.989c-0.879,1.027-2.024,1.542-3.433,1.542
	c-1.335,0-2.442-0.509-3.321-1.526S0,7.146,0,5.578c0-1.642,0.442-2.982,1.327-4.02C2.211,0.519,3.358,0,4.767,0
	C6.113,0,7.22,0.509,8.088,1.525C8.957,2.542,9.392,3.851,9.392,5.451z M8.311,5.387c0-1.335-0.342-2.421-1.025-3.258
	c-0.684-0.837-1.56-1.255-2.63-1.255c-1.081,0-1.947,0.418-2.598,1.255C1.406,2.966,1.081,4.074,1.081,5.451
	c0,1.356,0.342,2.471,1.025,3.345c0.684,0.874,1.549,1.311,2.598,1.311c1.102,0,1.979-0.429,2.63-1.288
	C7.985,7.961,8.311,6.817,8.311,5.387z"/>
<path fill="#192352" d="M19.418,10.79h-1.176l-2.876-4.704l-2.86,4.704H11.41l3.385-5.514l-3.163-5.085h1.192l2.574,4.291
	l2.559-4.291h1.112l-3.13,5.101L19.418,10.79z"/>
<path fill="#192352" d="M27.857,1.049h-4.434v3.766h4.147v0.842h-4.147v5.133h-1.017V0.191h5.451V1.049z"/>
<path fill="#192352" d="M39.95,5.451c0,1.631-0.44,2.961-1.319,3.989c-0.879,1.027-2.024,1.542-3.433,1.542
	c-1.335,0-2.442-0.509-3.321-1.526s-1.319-2.309-1.319-3.877c0-1.642,0.442-2.982,1.327-4.02C32.77,0.519,33.917,0,35.325,0
	c1.346,0,2.453,0.509,3.321,1.525C39.515,2.542,39.95,3.851,39.95,5.451z M38.869,5.387c0-1.335-0.342-2.421-1.025-3.258
	c-0.684-0.837-1.56-1.255-2.63-1.255c-1.081,0-1.947,0.418-2.598,1.255c-0.652,0.837-0.978,1.944-0.978,3.321
	c0,1.356,0.342,2.471,1.025,3.345c0.684,0.874,1.549,1.311,2.598,1.311c1.102,0,1.979-0.429,2.63-1.288
	C38.543,7.961,38.869,6.817,38.869,5.387z"/>
<path fill="#192352" d="M50.341,10.79h-1.049l-1.207-2.717c-0.393-0.89-0.75-1.446-1.073-1.668
	c-0.323-0.223-0.913-0.334-1.771-0.334h-0.858v4.72h-1.001V0.191h2.177c0.879,0,1.494,0.032,1.844,0.095
	c0.561,0.106,1.021,0.339,1.383,0.699c0.551,0.551,0.826,1.261,0.826,2.129c0,0.742-0.229,1.351-0.684,1.828
	c-0.455,0.477-1.018,0.747-1.685,0.81c0.308,0.021,0.583,0.154,0.827,0.397c0.242,0.244,0.508,0.689,0.794,1.335L50.341,10.79z
	 M48.609,3.051c0-0.593-0.174-1.065-0.523-1.415c-0.297-0.296-0.674-0.482-1.129-0.556c-0.223-0.042-0.646-0.063-1.271-0.063h-1.303
	v4.227h0.303c0.921,0,1.52-0.016,1.795-0.048c0.668-0.095,1.189-0.331,1.565-0.707S48.609,3.634,48.609,3.051z"/>
<path fill="#192352" d="M61.783,5.435c0,1.653-0.508,2.988-1.525,4.005c-0.572,0.572-1.245,0.953-2.018,1.144
	c-0.562,0.138-1.404,0.207-2.527,0.207h-2.399V0.191h2.034c1.25,0,2.188,0.069,2.812,0.207c0.848,0.19,1.547,0.562,2.098,1.112
	C61.275,2.527,61.783,3.835,61.783,5.435z M60.75,5.403c0-1.377-0.418-2.484-1.255-3.321c-0.444-0.445-0.985-0.736-1.621-0.874
	c-0.509-0.117-1.341-0.175-2.495-0.175H54.33v8.915h1.446c0.911,0,1.6-0.053,2.065-0.159c0.668-0.159,1.24-0.477,1.717-0.954
	C60.353,8.041,60.75,6.897,60.75,5.403z"/>
<path fill="#192352" d="M77.45,5.292c0,1.44-0.025,2.352-0.078,2.733c-0.107,0.837-0.393,1.489-0.859,1.955
	c-0.666,0.667-1.584,1.001-2.748,1.001c-1.166,0-2.093-0.344-2.781-1.033c-0.436-0.434-0.711-1.006-0.826-1.716
	c-0.064-0.381-0.096-1.149-0.096-2.304V0.191h1.001v6.706c0,0.614,0.026,1.054,0.079,1.319c0.085,0.456,0.281,0.837,0.588,1.144
	c0.498,0.498,1.191,0.747,2.082,0.747c0.816,0,1.451-0.228,1.906-0.684c0.35-0.35,0.568-0.784,0.652-1.303
	c0.053-0.35,0.08-1.123,0.08-2.32V0.191h1V5.292z"/>
<path fill="#192352" d="M88.56,10.79h-1.16l-5.277-9.105l0.033,9.105h-0.938V0.191h1.111l5.324,9.185L87.62,0.191h0.939V10.79z"/>
<path fill="#192352" d="M93.501,10.79h-1.018V0.191h1.018V10.79z"/>
<path fill="#192352" d="M105.101,0.191l-3.734,10.599h-1.271L96.44,0.191h1.08l3.242,9.725l3.354-9.725H105.101z"/>
<path fill="#192352" d="M113.761,10.79h-5.721V0.191h5.594v0.858h-4.592v3.766h4.307v0.842h-4.307V9.9h4.719V10.79z"/>
<path fill="#192352" d="M124.106,10.79h-1.049l-1.209-2.717c-0.391-0.89-0.748-1.446-1.072-1.668
	c-0.322-0.223-0.914-0.334-1.771-0.334h-0.857v4.72h-1.002V0.191h2.178c0.879,0,1.494,0.032,1.844,0.095
	c0.561,0.106,1.021,0.339,1.381,0.699c0.551,0.551,0.826,1.261,0.826,2.129c0,0.742-0.227,1.351-0.682,1.828
	c-0.457,0.477-1.018,0.747-1.686,0.81c0.307,0.021,0.582,0.154,0.826,0.397s0.51,0.689,0.795,1.335L124.106,10.79z M122.374,3.051
	c0-0.593-0.176-1.065-0.525-1.415c-0.297-0.296-0.672-0.482-1.127-0.556c-0.223-0.042-0.646-0.063-1.271-0.063h-1.303v4.227h0.301
	c0.922,0,1.521-0.016,1.797-0.048c0.666-0.095,1.188-0.331,1.564-0.707S122.374,3.634,122.374,3.051z"/>
<path fill="#192352" d="M132.94,7.882c0,0.922-0.285,1.664-0.857,2.225c-0.604,0.593-1.441,0.89-2.512,0.89
	c-1.176,0-2.203-0.376-3.082-1.128l0.525-0.731c0.91,0.636,1.742,0.954,2.494,0.954c0.762,0,1.35-0.193,1.764-0.58
	s0.619-0.903,0.619-1.549c0-0.466-0.18-0.879-0.539-1.239c-0.309-0.307-0.949-0.67-1.924-1.089
	c-0.975-0.418-1.646-0.813-2.018-1.184c-0.424-0.424-0.637-1.001-0.637-1.732c0-0.794,0.289-1.446,0.867-1.955
	C128.218,0.254,128.974,0,129.905,0c1.197,0,2.168,0.376,2.908,1.128l-0.539,0.636c-0.711-0.593-1.473-0.89-2.289-0.89
	c-0.656,0-1.191,0.172-1.605,0.517c-0.412,0.344-0.619,0.781-0.619,1.311c0,0.424,0.148,0.784,0.445,1.081s0.895,0.636,1.795,1.017
	c0.965,0.402,1.631,0.752,2.002,1.049C132.628,6.378,132.94,7.056,132.94,7.882z"/>
<path fill="#192352" d="M137.485,10.79h-1.016V0.191h1.016V10.79z"/>
<path fill="#192352" d="M147.989,1.049h-3.209v9.741h-1.018V1.049h-3.211V0.191h7.438V1.049z"/>
<path fill="#192352" d="M158.192,0.191l-3.385,6.42v4.179h-1.002V6.611l-3.385-6.42h1.111l2.83,5.435l2.797-5.435H158.192z"/>
<path fill="#192352" d="M7.723,24.063c0,0.996-0.313,1.807-0.938,2.432c-0.445,0.445-0.98,0.747-1.605,0.906
	C4.746,27.507,4.116,27.56,3.29,27.56H2.463v3.877H0.254V20.838h2.987c0.911,0,1.6,0.047,2.066,0.143
	c0.636,0.138,1.154,0.408,1.557,0.81C7.437,22.363,7.723,23.121,7.723,24.063z M5.451,24.159c0-0.519-0.13-0.909-0.39-1.168
	c-0.259-0.259-0.834-0.389-1.724-0.389H2.463v3.163h0.779c0.943,0,1.547-0.133,1.812-0.397S5.451,24.699,5.451,24.159z"/>
<path fill="#192352" d="M30.241,31.437h-6.356V20.838h2.256v8.756h4.1V31.437z"/>
<path fill="#192352" d="M43.175,31.437h-2.319l-0.779-2.209h-3.814l-0.778,2.209h-2.272l3.846-10.599h2.256L43.175,31.437z
	 M39.489,27.496l-1.335-4.259l-1.335,4.259H39.489z"/>
<path fill="#192352" d="M53.726,31.437h-2.383l-1.287-2.876c-0.275-0.625-0.551-1.017-0.826-1.176
	c-0.17-0.095-0.509-0.143-1.018-0.143h-0.254v4.195H45.75V20.838h2.717c0.954,0,1.611,0.032,1.971,0.095
	c0.668,0.117,1.219,0.392,1.652,0.826c0.572,0.572,0.858,1.277,0.858,2.114c0,0.688-0.19,1.271-0.571,1.748
	c-0.414,0.519-1.002,0.837-1.765,0.953c0.487,0.042,0.911,0.334,1.271,0.874c0.116,0.18,0.345,0.646,0.683,1.398L53.726,31.437z
	 M50.708,23.984c0-0.445-0.111-0.779-0.334-1.001c-0.181-0.18-0.419-0.291-0.715-0.333c-0.181-0.032-0.53-0.048-1.049-0.048h-0.651
	v2.908h0.89c0.667,0,1.144-0.143,1.431-0.429C50.564,24.794,50.708,24.429,50.708,23.984z"/>
<path fill="#192352" d="M67.71,22.649h-4.1v2.463h3.893v1.78h-3.893v4.545h-2.225V20.838h6.324V22.649z"/>
<path fill="#192352" d="M80.694,26.05c0,1.695-0.48,3.059-1.438,4.092c-0.959,1.033-2.197,1.549-3.711,1.549
	c-1.547,0-2.796-0.522-3.75-1.565s-1.431-2.402-1.431-4.076c0-1.621,0.477-2.937,1.431-3.949s2.198-1.518,3.735-1.518
	c1.547,0,2.793,0.508,3.742,1.525C80.22,23.126,80.694,24.44,80.694,26.05z M78.421,26.034c0-1.06-0.271-1.925-0.818-2.598
	c-0.545-0.673-1.262-1.009-2.152-1.009c-0.848,0-1.529,0.35-2.043,1.049s-0.769,1.605-0.769,2.717c0,1.091,0.277,1.965,0.833,2.622
	c0.557,0.657,1.258,0.985,2.105,0.985c0.996,0,1.742-0.413,2.24-1.24C78.22,27.894,78.421,27.051,78.421,26.034z"/>
<path fill="#192352" d="M91.722,31.437h-2.383l-1.287-2.876c-0.275-0.625-0.551-1.017-0.826-1.176
	c-0.17-0.095-0.508-0.143-1.018-0.143h-0.254v4.195h-2.209V20.838h2.717c0.955,0,1.611,0.032,1.971,0.095
	c0.668,0.117,1.219,0.392,1.652,0.826c0.572,0.572,0.859,1.277,0.859,2.114c0,0.688-0.191,1.271-0.572,1.748
	c-0.414,0.519-1.002,0.837-1.764,0.953c0.486,0.042,0.91,0.334,1.271,0.874c0.115,0.18,0.344,0.646,0.682,1.398L91.722,31.437z
	 M88.704,23.984c0-0.445-0.111-0.779-0.334-1.001c-0.182-0.18-0.42-0.291-0.715-0.333c-0.182-0.032-0.531-0.048-1.049-0.048h-0.652
	v2.908h0.891c0.666,0,1.143-0.143,1.43-0.429C88.56,24.794,88.704,24.429,88.704,23.984z"/>
<path fill="#192352" d="M102.687,26.812c0,0.985-0.062,1.732-0.191,2.241c-0.148,0.572-0.424,1.06-0.826,1.462
	c-0.783,0.784-1.842,1.176-3.178,1.176c-1.312,0-2.367-0.397-3.162-1.192c-0.434-0.435-0.721-0.98-0.857-1.637
	c-0.096-0.456-0.145-1.16-0.145-2.114v-5.911h2.258v6.61c0,0.837,0.17,1.425,0.508,1.764c0.34,0.339,0.82,0.508,1.447,0.508
	c0.582,0,1.064-0.19,1.445-0.572c0.223-0.223,0.365-0.53,0.43-0.922c0.053-0.318,0.078-0.906,0.078-1.764v-5.625h2.193V26.812z"/>
<path fill="#192352" d="M117.784,31.437h-2.113l-0.588-7.453l-2.447,7.453h-1.844l-2.527-7.453l-0.492,7.453h-1.986l0.953-10.599
	h2.416l2.67,7.675l2.525-7.675h2.416L117.784,31.437z"/>
<g>
	<g>
		<g>
			<g>
				<path fill="#629DC2" d="M15.752,30.928L15.752,30.928c-1.435,0-2.77-0.645-3.664-1.768l0.131-0.104
					c0.863,1.083,2.15,1.705,3.533,1.705l0,0c1.303,0,2.542-0.563,3.4-1.546l0.127,0.111C18.389,30.343,17.104,30.928,15.752,30.928
					z"/>
				<path fill="#629DC2" d="M15.752,31.227c-1.526,0-2.947-0.686-3.897-1.88l-0.186-0.234l0.599-0.476l0.187,0.233
					c0.805,1.011,2.007,1.592,3.298,1.592c1.217,0,2.375-0.526,3.175-1.444l0.196-0.225l0.578,0.503l-0.197,0.226
					C18.558,30.604,17.19,31.227,15.752,31.227z"/>
			</g>
		</g>
		<g>
			<g>
				<path fill="#629DC2" d="M12.199,23.469l-0.132-0.103c0.894-1.142,2.237-1.796,3.685-1.796c1.338,0,2.615,0.575,3.503,1.577
					l-0.126,0.112c-0.856-0.967-2.088-1.521-3.377-1.521C14.356,21.737,13.061,22.368,12.199,23.469z"/>
				<path fill="#629DC2" d="M12.25,23.888l-0.603-0.471l0.184-0.236c0.951-1.214,2.38-1.911,3.92-1.911
					c1.423,0,2.782,0.611,3.727,1.677l0.199,0.224l-0.574,0.507l-0.198-0.223c-0.8-0.902-1.949-1.42-3.154-1.42
					c-1.304,0-2.513,0.589-3.318,1.617L12.25,23.888z"/>
			</g>
		</g>
	</g>
</g>
</svg>
